-target:library
-out:"Library/Bee/artifacts/1900b0aE.dag/Unity.InteractiveTutorials.Core.dll"
-refout:"Library/Bee/artifacts/1900b0aE.dag/Unity.InteractiveTutorials.Core.ref.dll"
-define:UNITY_2021_1_5
-define:UNITY_2021_1
-define:UNITY_2021
-define:UNITY_5_3_OR_NEWER
-define:UNITY_5_4_OR_NEWER
-define:UNITY_5_5_OR_NEWER
-define:UNITY_5_6_OR_NEWER
-define:UNITY_2017_1_OR_NEWER
-define:UNITY_2017_2_OR_NEWER
-define:UNITY_2017_3_OR_NEWER
-define:UNITY_2017_4_OR_NEWER
-define:UNITY_2018_1_OR_NEWER
-define:UNITY_2018_2_OR_NEWER
-define:UNITY_2018_3_OR_NEWER
-define:UNITY_2018_4_OR_NEWER
-define:UNITY_2019_1_OR_NEWER
-define:UNITY_2019_2_OR_NEWER
-define:UNITY_2019_3_OR_NEWER
-define:UNITY_2019_4_OR_NEWER
-define:UNITY_2020_1_OR_NEWER
-define:UNITY_2020_2_OR_NEWER
-define:UNITY_2020_3_OR_NEWER
-define:UNITY_2021_1_OR_NEWER
-define:PLATFORM_ARCH_64
-define:UNITY_64
-define:UNITY_INCLUDE_TESTS
-define:USE_SEARCH_ENGINE_API
-define:USE_QUICK_SEARCH_MODULE
-define:SCENE_TEMPLATE_MODULE
-define:ENABLE_AR
-define:ENABLE_AUDIO
-define:ENABLE_CACHING
-define:ENABLE_CLOTH
-define:ENABLE_EVENT_QUEUE
-define:ENABLE_MICROPHONE
-define:ENABLE_MULTIPLE_DISPLAYS
-define:ENABLE_PHYSICS
-define:ENABLE_TEXTURE_STREAMING
-define:ENABLE_VIRTUALTEXTURING
-define:ENABLE_UNET
-define:ENABLE_LZMA
-define:ENABLE_UNITYEVENTS
-define:ENABLE_VR
-define:ENABLE_WEBCAM
-define:ENABLE_UNITYWEBREQUEST
-define:ENABLE_WWW
-define:ENABLE_CLOUD_SERVICES
-define:ENABLE_CLOUD_SERVICES_COLLAB
-define:ENABLE_CLOUD_SERVICES_COLLAB_SOFTLOCKS
-define:ENABLE_CLOUD_SERVICES_ADS
-define:ENABLE_CLOUD_SERVICES_USE_WEBREQUEST
-define:ENABLE_CLOUD_SERVICES_CRASH_REPORTING
-define:ENABLE_CLOUD_SERVICES_PURCHASING
-define:ENABLE_CLOUD_SERVICES_ANALYTICS
-define:ENABLE_CLOUD_SERVICES_UNET
-define:ENABLE_CLOUD_SERVICES_BUILD
-define:ENABLE_CLOUD_LICENSE
-define:ENABLE_EDITOR_HUB_LICENSE
-define:ENABLE_WEBSOCKET_CLIENT
-define:ENABLE_DIRECTOR_AUDIO
-define:ENABLE_DIRECTOR_TEXTURE
-define:ENABLE_MANAGED_JOBS
-define:ENABLE_MANAGED_TRANSFORM_JOBS
-define:ENABLE_MANAGED_ANIMATION_JOBS
-define:ENABLE_MANAGED_AUDIO_JOBS
-define:INCLUDE_DYNAMIC_GI
-define:ENABLE_MONO_BDWGC
-define:ENABLE_SCRIPTING_GC_WBARRIERS
-define:PLATFORM_SUPPORTS_MONO
-define:RENDER_SOFTWARE_CURSOR
-define:ENABLE_VIDEO
-define:PLATFORM_STANDALONE
-define:PLATFORM_STANDALONE_WIN
-define:UNITY_STANDALONE_WIN
-define:UNITY_STANDALONE
-define:ENABLE_RUNTIME_GI
-define:ENABLE_MOVIES
-define:ENABLE_NETWORK
-define:ENABLE_CRUNCH_TEXTURE_COMPRESSION
-define:ENABLE_OUT_OF_PROCESS_CRASH_HANDLER
-define:ENABLE_CLUSTER_SYNC
-define:ENABLE_CLUSTERINPUT
-define:PLATFORM_UPDATES_TIME_OUTSIDE_OF_PLAYER_LOOP
-define:GFXDEVICE_WAITFOREVENT_MESSAGEPUMP
-define:ENABLE_WEBSOCKET_HOST
-define:ENABLE_MONO
-define:NET_4_6
-define:ENABLE_PROFILER
-define:DEBUG
-define:TRACE
-define:UNITY_ASSERTIONS
-define:UNITY_EDITOR
-define:UNITY_EDITOR_64
-define:UNITY_EDITOR_WIN
-define:ENABLE_UNITY_COLLECTIONS_CHECKS
-define:ENABLE_BURST_AOT
-define:UNITY_TEAM_LICENSE
-define:ENABLE_CUSTOM_RENDER_TEXTURE
-define:ENABLE_DIRECTOR
-define:ENABLE_LOCALIZATION
-define:ENABLE_SPRITES
-define:ENABLE_TERRAIN
-define:ENABLE_TILEMAP
-define:ENABLE_TIMELINE
-define:ENABLE_LEGACY_INPUT_MANAGER
-define:VIU_XR_GENERAL_SETTINGS
-define:VIU_XR_PACKAGE_METADATA_STORE
-define:VIU_PLUGIN
-define:VIU_SIUMULATOR_SUPPORT
-define:UNITY_POST_PROCESSING_STACK_V2
-define:CT_RADIO
-define:CT_BLOCKCOPY
-define:CT_UI
-define:CT_RADIO_ONRADIO
-define:CSHARP_7_OR_LATER
-define:CSHARP_7_3_OR_NEWER
-r:"Assets/Plugins/crosstales/Common/Libraries/NAudio/CTNAudio.dll"
-r:"Assets/Plugins/crosstales/Common/Libraries/NLayer/CTNLayer.dll"
-r:"Assets/Plugins/crosstales/Common/Libraries/NVorbis/CTNVorbis.dll"
-r:"C:/Users/Xabi/Documents/Unity/2021.1.5f1/Editor/Data/Managed/UnityEditor.Graphs.dll"
-r:"C:/Users/Xabi/Documents/Unity/2021.1.5f1/Editor/Data/Managed/UnityEngine/UnityEditor.CoreModule.dll"
-r:"C:/Users/Xabi/Documents/Unity/2021.1.5f1/Editor/Data/Managed/UnityEngine/UnityEditor.DeviceSimulatorModule.dll"
-r:"C:/Users/Xabi/Documents/Unity/2021.1.5f1/Editor/Data/Managed/UnityEngine/UnityEditor.dll"
-r:"C:/Users/Xabi/Documents/Unity/2021.1.5f1/Editor/Data/Managed/UnityEngine/UnityEditor.GraphViewModule.dll"
-r:"C:/Users/Xabi/Documents/Unity/2021.1.5f1/Editor/Data/Managed/UnityEngine/UnityEditor.PackageManagerUIModule.dll"
-r:"C:/Users/Xabi/Documents/Unity/2021.1.5f1/Editor/Data/Managed/UnityEngine/UnityEditor.QuickSearchModule.dll"
-r:"C:/Users/Xabi/Documents/Unity/2021.1.5f1/Editor/Data/Managed/UnityEngine/UnityEditor.SceneTemplateModule.dll"
-r:"C:/Users/Xabi/Documents/Unity/2021.1.5f1/Editor/Data/Managed/UnityEngine/UnityEditor.UIBuilderModule.dll"
-r:"C:/Users/Xabi/Documents/Unity/2021.1.5f1/Editor/Data/Managed/UnityEngine/UnityEditor.UIElementsModule.dll"
-r:"C:/Users/Xabi/Documents/Unity/2021.1.5f1/Editor/Data/Managed/UnityEngine/UnityEditor.UIElementsSamplesModule.dll"
-r:"C:/Users/Xabi/Documents/Unity/2021.1.5f1/Editor/Data/Managed/UnityEngine/UnityEditor.UIServiceModule.dll"
-r:"C:/Users/Xabi/Documents/Unity/2021.1.5f1/Editor/Data/Managed/UnityEngine/UnityEditor.UnityConnectModule.dll"
-r:"C:/Users/Xabi/Documents/Unity/2021.1.5f1/Editor/Data/Managed/UnityEngine/UnityEngine.AccessibilityModule.dll"
-r:"C:/Users/Xabi/Documents/Unity/2021.1.5f1/Editor/Data/Managed/UnityEngine/UnityEngine.AIModule.dll"
-r:"C:/Users/Xabi/Documents/Unity/2021.1.5f1/Editor/Data/Managed/UnityEngine/UnityEngine.AndroidJNIModule.dll"
-r:"C:/Users/Xabi/Documents/Unity/2021.1.5f1/Editor/Data/Managed/UnityEngine/UnityEngine.AnimationModule.dll"
-r:"C:/Users/Xabi/Documents/Unity/2021.1.5f1/Editor/Data/Managed/UnityEngine/UnityEngine.ARModule.dll"
-r:"C:/Users/Xabi/Documents/Unity/2021.1.5f1/Editor/Data/Managed/UnityEngine/UnityEngine.AssetBundleModule.dll"
-r:"C:/Users/Xabi/Documents/Unity/2021.1.5f1/Editor/Data/Managed/UnityEngine/UnityEngine.AudioModule.dll"
-r:"C:/Users/Xabi/Documents/Unity/2021.1.5f1/Editor/Data/Managed/UnityEngine/UnityEngine.ClothModule.dll"
-r:"C:/Users/Xabi/Documents/Unity/2021.1.5f1/Editor/Data/Managed/UnityEngine/UnityEngine.ClusterInputModule.dll"
-r:"C:/Users/Xabi/Documents/Unity/2021.1.5f1/Editor/Data/Managed/UnityEngine/UnityEngine.ClusterRendererModule.dll"
-r:"C:/Users/Xabi/Documents/Unity/2021.1.5f1/Editor/Data/Managed/UnityEngine/UnityEngine.CoreModule.dll"
-r:"C:/Users/Xabi/Documents/Unity/2021.1.5f1/Editor/Data/Managed/UnityEngine/UnityEngine.CrashReportingModule.dll"
-r:"C:/Users/Xabi/Documents/Unity/2021.1.5f1/Editor/Data/Managed/UnityEngine/UnityEngine.DirectorModule.dll"
-r:"C:/Users/Xabi/Documents/Unity/2021.1.5f1/Editor/Data/Managed/UnityEngine/UnityEngine.dll"
-r:"C:/Users/Xabi/Documents/Unity/2021.1.5f1/Editor/Data/Managed/UnityEngine/UnityEngine.DSPGraphModule.dll"
-r:"C:/Users/Xabi/Documents/Unity/2021.1.5f1/Editor/Data/Managed/UnityEngine/UnityEngine.GameCenterModule.dll"
-r:"C:/Users/Xabi/Documents/Unity/2021.1.5f1/Editor/Data/Managed/UnityEngine/UnityEngine.GIModule.dll"
-r:"C:/Users/Xabi/Documents/Unity/2021.1.5f1/Editor/Data/Managed/UnityEngine/UnityEngine.GridModule.dll"
-r:"C:/Users/Xabi/Documents/Unity/2021.1.5f1/Editor/Data/Managed/UnityEngine/UnityEngine.HotReloadModule.dll"
-r:"C:/Users/Xabi/Documents/Unity/2021.1.5f1/Editor/Data/Managed/UnityEngine/UnityEngine.ImageConversionModule.dll"
-r:"C:/Users/Xabi/Documents/Unity/2021.1.5f1/Editor/Data/Managed/UnityEngine/UnityEngine.IMGUIModule.dll"
-r:"C:/Users/Xabi/Documents/Unity/2021.1.5f1/Editor/Data/Managed/UnityEngine/UnityEngine.InputLegacyModule.dll"
-r:"C:/Users/Xabi/Documents/Unity/2021.1.5f1/Editor/Data/Managed/UnityEngine/UnityEngine.InputModule.dll"
-r:"C:/Users/Xabi/Documents/Unity/2021.1.5f1/Editor/Data/Managed/UnityEngine/UnityEngine.JSONSerializeModule.dll"
-r:"C:/Users/Xabi/Documents/Unity/2021.1.5f1/Editor/Data/Managed/UnityEngine/UnityEngine.LocalizationModule.dll"
-r:"C:/Users/Xabi/Documents/Unity/2021.1.5f1/Editor/Data/Managed/UnityEngine/UnityEngine.ParticleSystemModule.dll"
-r:"C:/Users/Xabi/Documents/Unity/2021.1.5f1/Editor/Data/Managed/UnityEngine/UnityEngine.PerformanceReportingModule.dll"
-r:"C:/Users/Xabi/Documents/Unity/2021.1.5f1/Editor/Data/Managed/UnityEngine/UnityEngine.Physics2DModule.dll"
-r:"C:/Users/Xabi/Documents/Unity/2021.1.5f1/Editor/Data/Managed/UnityEngine/UnityEngine.PhysicsModule.dll"
-r:"C:/Users/Xabi/Documents/Unity/2021.1.5f1/Editor/Data/Managed/UnityEngine/UnityEngine.ProfilerModule.dll"
-r:"C:/Users/Xabi/Documents/Unity/2021.1.5f1/Editor/Data/Managed/UnityEngine/UnityEngine.RuntimeInitializeOnLoadManagerInitializerModule.dll"
-r:"C:/Users/Xabi/Documents/Unity/2021.1.5f1/Editor/Data/Managed/UnityEngine/UnityEngine.ScreenCaptureModule.dll"
-r:"C:/Users/Xabi/Documents/Unity/2021.1.5f1/Editor/Data/Managed/UnityEngine/UnityEngine.SharedInternalsModule.dll"
-r:"C:/Users/Xabi/Documents/Unity/2021.1.5f1/Editor/Data/Managed/UnityEngine/UnityEngine.SpriteMaskModule.dll"
-r:"C:/Users/Xabi/Documents/Unity/2021.1.5f1/Editor/Data/Managed/UnityEngine/UnityEngine.SpriteShapeModule.dll"
-r:"C:/Users/Xabi/Documents/Unity/2021.1.5f1/Editor/Data/Managed/UnityEngine/UnityEngine.StreamingModule.dll"
-r:"C:/Users/Xabi/Documents/Unity/2021.1.5f1/Editor/Data/Managed/UnityEngine/UnityEngine.SubstanceModule.dll"
-r:"C:/Users/Xabi/Documents/Unity/2021.1.5f1/Editor/Data/Managed/UnityEngine/UnityEngine.SubsystemsModule.dll"
-r:"C:/Users/Xabi/Documents/Unity/2021.1.5f1/Editor/Data/Managed/UnityEngine/UnityEngine.TerrainModule.dll"
-r:"C:/Users/Xabi/Documents/Unity/2021.1.5f1/Editor/Data/Managed/UnityEngine/UnityEngine.TerrainPhysicsModule.dll"
-r:"C:/Users/Xabi/Documents/Unity/2021.1.5f1/Editor/Data/Managed/UnityEngine/UnityEngine.TextCoreModule.dll"
-r:"C:/Users/Xabi/Documents/Unity/2021.1.5f1/Editor/Data/Managed/UnityEngine/UnityEngine.TextRenderingModule.dll"
-r:"C:/Users/Xabi/Documents/Unity/2021.1.5f1/Editor/Data/Managed/UnityEngine/UnityEngine.TilemapModule.dll"
-r:"C:/Users/Xabi/Documents/Unity/2021.1.5f1/Editor/Data/Managed/UnityEngine/UnityEngine.TLSModule.dll"
-r:"C:/Users/Xabi/Documents/Unity/2021.1.5f1/Editor/Data/Managed/UnityEngine/UnityEngine.UIElementsModule.dll"
-r:"C:/Users/Xabi/Documents/Unity/2021.1.5f1/Editor/Data/Managed/UnityEngine/UnityEngine.UIElementsNativeModule.dll"
-r:"C:/Users/Xabi/Documents/Unity/2021.1.5f1/Editor/Data/Managed/UnityEngine/UnityEngine.UIModule.dll"
-r:"C:/Users/Xabi/Documents/Unity/2021.1.5f1/Editor/Data/Managed/UnityEngine/UnityEngine.UmbraModule.dll"
-r:"C:/Users/Xabi/Documents/Unity/2021.1.5f1/Editor/Data/Managed/UnityEngine/UnityEngine.UNETModule.dll"
-r:"C:/Users/Xabi/Documents/Unity/2021.1.5f1/Editor/Data/Managed/UnityEngine/UnityEngine.UnityAnalyticsModule.dll"
-r:"C:/Users/Xabi/Documents/Unity/2021.1.5f1/Editor/Data/Managed/UnityEngine/UnityEngine.UnityConnectModule.dll"
-r:"C:/Users/Xabi/Documents/Unity/2021.1.5f1/Editor/Data/Managed/UnityEngine/UnityEngine.UnityCurlModule.dll"
-r:"C:/Users/Xabi/Documents/Unity/2021.1.5f1/Editor/Data/Managed/UnityEngine/UnityEngine.UnityTestProtocolModule.dll"
-r:"C:/Users/Xabi/Documents/Unity/2021.1.5f1/Editor/Data/Managed/UnityEngine/UnityEngine.UnityWebRequestAssetBundleModule.dll"
-r:"C:/Users/Xabi/Documents/Unity/2021.1.5f1/Editor/Data/Managed/UnityEngine/UnityEngine.UnityWebRequestAudioModule.dll"
-r:"C:/Users/Xabi/Documents/Unity/2021.1.5f1/Editor/Data/Managed/UnityEngine/UnityEngine.UnityWebRequestModule.dll"
-r:"C:/Users/Xabi/Documents/Unity/2021.1.5f1/Editor/Data/Managed/UnityEngine/UnityEngine.UnityWebRequestTextureModule.dll"
-r:"C:/Users/Xabi/Documents/Unity/2021.1.5f1/Editor/Data/Managed/UnityEngine/UnityEngine.UnityWebRequestWWWModule.dll"
-r:"C:/Users/Xabi/Documents/Unity/2021.1.5f1/Editor/Data/Managed/UnityEngine/UnityEngine.VehiclesModule.dll"
-r:"C:/Users/Xabi/Documents/Unity/2021.1.5f1/Editor/Data/Managed/UnityEngine/UnityEngine.VFXModule.dll"
-r:"C:/Users/Xabi/Documents/Unity/2021.1.5f1/Editor/Data/Managed/UnityEngine/UnityEngine.VideoModule.dll"
-r:"C:/Users/Xabi/Documents/Unity/2021.1.5f1/Editor/Data/Managed/UnityEngine/UnityEngine.VirtualTexturingModule.dll"
-r:"C:/Users/Xabi/Documents/Unity/2021.1.5f1/Editor/Data/Managed/UnityEngine/UnityEngine.VRModule.dll"
-r:"C:/Users/Xabi/Documents/Unity/2021.1.5f1/Editor/Data/Managed/UnityEngine/UnityEngine.WindModule.dll"
-r:"C:/Users/Xabi/Documents/Unity/2021.1.5f1/Editor/Data/Managed/UnityEngine/UnityEngine.XRModule.dll"
-r:"C:/Users/Xabi/Documents/Unity/2021.1.5f1/Editor/Data/MonoBleedingEdge/lib/mono/4.7.1-api/Facades/Microsoft.Win32.Primitives.dll"
-r:"C:/Users/Xabi/Documents/Unity/2021.1.5f1/Editor/Data/MonoBleedingEdge/lib/mono/4.7.1-api/Facades/netstandard.dll"
-r:"C:/Users/Xabi/Documents/Unity/2021.1.5f1/Editor/Data/MonoBleedingEdge/lib/mono/4.7.1-api/Facades/System.AppContext.dll"
-r:"C:/Users/Xabi/Documents/Unity/2021.1.5f1/Editor/Data/MonoBleedingEdge/lib/mono/4.7.1-api/Facades/System.Collections.Concurrent.dll"
-r:"C:/Users/Xabi/Documents/Unity/2021.1.5f1/Editor/Data/MonoBleedingEdge/lib/mono/4.7.1-api/Facades/System.Collections.dll"
-r:"C:/Users/Xabi/Documents/Unity/2021.1.5f1/Editor/Data/MonoBleedingEdge/lib/mono/4.7.1-api/Facades/System.Collections.NonGeneric.dll"
-r:"C:/Users/Xabi/Documents/Unity/2021.1.5f1/Editor/Data/MonoBleedingEdge/lib/mono/4.7.1-api/Facades/System.Collections.Specialized.dll"
-r:"C:/Users/Xabi/Documents/Unity/2021.1.5f1/Editor/Data/MonoBleedingEdge/lib/mono/4.7.1-api/Facades/System.ComponentModel.Annotations.dll"
-r:"C:/Users/Xabi/Documents/Unity/2021.1.5f1/Editor/Data/MonoBleedingEdge/lib/mono/4.7.1-api/Facades/System.ComponentModel.dll"
-r:"C:/Users/Xabi/Documents/Unity/2021.1.5f1/Editor/Data/MonoBleedingEdge/lib/mono/4.7.1-api/Facades/System.ComponentModel.EventBasedAsync.dll"
-r:"C:/Users/Xabi/Documents/Unity/2021.1.5f1/Editor/Data/MonoBleedingEdge/lib/mono/4.7.1-api/Facades/System.ComponentModel.Primitives.dll"
-r:"C:/Users/Xabi/Documents/Unity/2021.1.5f1/Editor/Data/MonoBleedingEdge/lib/mono/4.7.1-api/Facades/System.ComponentModel.TypeConverter.dll"
-r:"C:/Users/Xabi/Documents/Unity/2021.1.5f1/Editor/Data/MonoBleedingEdge/lib/mono/4.7.1-api/Facades/System.Console.dll"
-r:"C:/Users/Xabi/Documents/Unity/2021.1.5f1/Editor/Data/MonoBleedingEdge/lib/mono/4.7.1-api/Facades/System.Data.Common.dll"
-r:"C:/Users/Xabi/Documents/Unity/2021.1.5f1/Editor/Data/MonoBleedingEdge/lib/mono/4.7.1-api/Facades/System.Diagnostics.Contracts.dll"
-r:"C:/Users/Xabi/Documents/Unity/2021.1.5f1/Editor/Data/MonoBleedingEdge/lib/mono/4.7.1-api/Facades/System.Diagnostics.Debug.dll"
-r:"C:/Users/Xabi/Documents/Unity/2021.1.5f1/Editor/Data/MonoBleedingEdge/lib/mono/4.7.1-api/Facades/System.Diagnostics.FileVersionInfo.dll"
-r:"C:/Users/Xabi/Documents/Unity/2021.1.5f1/Editor/Data/MonoBleedingEdge/lib/mono/4.7.1-api/Facades/System.Diagnostics.Process.dll"
-r:"C:/Users/Xabi/Documents/Unity/2021.1.5f1/Editor/Data/MonoBleedingEdge/lib/mono/4.7.1-api/Facades/System.Diagnostics.StackTrace.dll"
-r:"C:/Users/Xabi/Documents/Unity/2021.1.5f1/Editor/Data/MonoBleedingEdge/lib/mono/4.7.1-api/Facades/System.Diagnostics.TextWriterTraceListener.dll"
-r:"C:/Users/Xabi/Documents/Unity/2021.1.5f1/Editor/Data/MonoBleedingEdge/lib/mono/4.7.1-api/Facades/System.Diagnostics.Tools.dll"
-r:"C:/Users/Xabi/Documents/Unity/2021.1.5f1/Editor/Data/MonoBleedingEdge/lib/mono/4.7.1-api/Facades/System.Diagnostics.TraceSource.dll"
-r:"C:/Users/Xabi/Documents/Unity/2021.1.5f1/Editor/Data/MonoBleedingEdge/lib/mono/4.7.1-api/Facades/System.Drawing.Primitives.dll"
-r:"C:/Users/Xabi/Documents/Unity/2021.1.5f1/Editor/Data/MonoBleedingEdge/lib/mono/4.7.1-api/Facades/System.Dynamic.Runtime.dll"
-r:"C:/Users/Xabi/Documents/Unity/2021.1.5f1/Editor/Data/MonoBleedingEdge/lib/mono/4.7.1-api/Facades/System.Globalization.Calendars.dll"
-r:"C:/Users/Xabi/Documents/Unity/2021.1.5f1/Editor/Data/MonoBleedingEdge/lib/mono/4.7.1-api/Facades/System.Globalization.dll"
-r:"C:/Users/Xabi/Documents/Unity/2021.1.5f1/Editor/Data/MonoBleedingEdge/lib/mono/4.7.1-api/Facades/System.Globalization.Extensions.dll"
-r:"C:/Users/Xabi/Documents/Unity/2021.1.5f1/Editor/Data/MonoBleedingEdge/lib/mono/4.7.1-api/Facades/System.IO.Compression.ZipFile.dll"
-r:"C:/Users/Xabi/Documents/Unity/2021.1.5f1/Editor/Data/MonoBleedingEdge/lib/mono/4.7.1-api/Facades/System.IO.dll"
-r:"C:/Users/Xabi/Documents/Unity/2021.1.5f1/Editor/Data/MonoBleedingEdge/lib/mono/4.7.1-api/Facades/System.IO.FileSystem.dll"
-r:"C:/Users/Xabi/Documents/Unity/2021.1.5f1/Editor/Data/MonoBleedingEdge/lib/mono/4.7.1-api/Facades/System.IO.FileSystem.DriveInfo.dll"
-r:"C:/Users/Xabi/Documents/Unity/2021.1.5f1/Editor/Data/MonoBleedingEdge/lib/mono/4.7.1-api/Facades/System.IO.FileSystem.Primitives.dll"
-r:"C:/Users/Xabi/Documents/Unity/2021.1.5f1/Editor/Data/MonoBleedingEdge/lib/mono/4.7.1-api/Facades/System.IO.FileSystem.Watcher.dll"
-r:"C:/Users/Xabi/Documents/Unity/2021.1.5f1/Editor/Data/MonoBleedingEdge/lib/mono/4.7.1-api/Facades/System.IO.IsolatedStorage.dll"
-r:"C:/Users/Xabi/Documents/Unity/2021.1.5f1/Editor/Data/MonoBleedingEdge/lib/mono/4.7.1-api/Facades/System.IO.MemoryMappedFiles.dll"
-r:"C:/Users/Xabi/Documents/Unity/2021.1.5f1/Editor/Data/MonoBleedingEdge/lib/mono/4.7.1-api/Facades/System.IO.Pipes.dll"
-r:"C:/Users/Xabi/Documents/Unity/2021.1.5f1/Editor/Data/MonoBleedingEdge/lib/mono/4.7.1-api/Facades/System.IO.UnmanagedMemoryStream.dll"
-r:"C:/Users/Xabi/Documents/Unity/2021.1.5f1/Editor/Data/MonoBleedingEdge/lib/mono/4.7.1-api/Facades/System.Linq.dll"
-r:"C:/Users/Xabi/Documents/Unity/2021.1.5f1/Editor/Data/MonoBleedingEdge/lib/mono/4.7.1-api/Facades/System.Linq.Expressions.dll"
-r:"C:/Users/Xabi/Documents/Unity/2021.1.5f1/Editor/Data/MonoBleedingEdge/lib/mono/4.7.1-api/Facades/System.Linq.Parallel.dll"
-r:"C:/Users/Xabi/Documents/Unity/2021.1.5f1/Editor/Data/MonoBleedingEdge/lib/mono/4.7.1-api/Facades/System.Linq.Queryable.dll"
-r:"C:/Users/Xabi/Documents/Unity/2021.1.5f1/Editor/Data/MonoBleedingEdge/lib/mono/4.7.1-api/Facades/System.Net.Http.Rtc.dll"
-r:"C:/Users/Xabi/Documents/Unity/2021.1.5f1/Editor/Data/MonoBleedingEdge/lib/mono/4.7.1-api/Facades/System.Net.NameResolution.dll"
-r:"C:/Users/Xabi/Documents/Unity/2021.1.5f1/Editor/Data/MonoBleedingEdge/lib/mono/4.7.1-api/Facades/System.Net.NetworkInformation.dll"
-r:"C:/Users/Xabi/Documents/Unity/2021.1.5f1/Editor/Data/MonoBleedingEdge/lib/mono/4.7.1-api/Facades/System.Net.Ping.dll"
-r:"C:/Users/Xabi/Documents/Unity/2021.1.5f1/Editor/Data/MonoBleedingEdge/lib/mono/4.7.1-api/Facades/System.Net.Primitives.dll"
-r:"C:/Users/Xabi/Documents/Unity/2021.1.5f1/Editor/Data/MonoBleedingEdge/lib/mono/4.7.1-api/Facades/System.Net.Requests.dll"
-r:"C:/Users/Xabi/Documents/Unity/2021.1.5f1/Editor/Data/MonoBleedingEdge/lib/mono/4.7.1-api/Facades/System.Net.Security.dll"
-r:"C:/Users/Xabi/Documents/Unity/2021.1.5f1/Editor/Data/MonoBleedingEdge/lib/mono/4.7.1-api/Facades/System.Net.Sockets.dll"
-r:"C:/Users/Xabi/Documents/Unity/2021.1.5f1/Editor/Data/MonoBleedingEdge/lib/mono/4.7.1-api/Facades/System.Net.WebHeaderCollection.dll"
-r:"C:/Users/Xabi/Documents/Unity/2021.1.5f1/Editor/Data/MonoBleedingEdge/lib/mono/4.7.1-api/Facades/System.Net.WebSockets.Client.dll"
-r:"C:/Users/Xabi/Documents/Unity/2021.1.5f1/Editor/Data/MonoBleedingEdge/lib/mono/4.7.1-api/Facades/System.Net.WebSockets.dll"
-r:"C:/Users/Xabi/Documents/Unity/2021.1.5f1/Editor/Data/MonoBleedingEdge/lib/mono/4.7.1-api/Facades/System.ObjectModel.dll"
-r:"C:/Users/Xabi/Documents/Unity/2021.1.5f1/Editor/Data/MonoBleedingEdge/lib/mono/4.7.1-api/Facades/System.Reflection.dll"
-r:"C:/Users/Xabi/Documents/Unity/2021.1.5f1/Editor/Data/MonoBleedingEdge/lib/mono/4.7.1-api/Facades/System.Reflection.Emit.dll"
-r:"C:/Users/Xabi/Documents/Unity/2021.1.5f1/Editor/Data/MonoBleedingEdge/lib/mono/4.7.1-api/Facades/System.Reflection.Emit.ILGeneration.dll"
-r:"C:/Users/Xabi/Documents/Unity/2021.1.5f1/Editor/Data/MonoBleedingEdge/lib/mono/4.7.1-api/Facades/System.Reflection.Emit.Lightweight.dll"
-r:"C:/Users/Xabi/Documents/Unity/2021.1.5f1/Editor/Data/MonoBleedingEdge/lib/mono/4.7.1-api/Facades/System.Reflection.Extensions.dll"
-r:"C:/Users/Xabi/Documents/Unity/2021.1.5f1/Editor/Data/MonoBleedingEdge/lib/mono/4.7.1-api/Facades/System.Reflection.Primitives.dll"
-r:"C:/Users/Xabi/Documents/Unity/2021.1.5f1/Editor/Data/MonoBleedingEdge/lib/mono/4.7.1-api/Facades/System.Resources.Reader.dll"
-r:"C:/Users/Xabi/Documents/Unity/2021.1.5f1/Editor/Data/MonoBleedingEdge/lib/mono/4.7.1-api/Facades/System.Resources.ResourceManager.dll"
-r:"C:/Users/Xabi/Documents/Unity/2021.1.5f1/Editor/Data/MonoBleedingEdge/lib/mono/4.7.1-api/Facades/System.Resources.Writer.dll"
-r:"C:/Users/Xabi/Documents/Unity/2021.1.5f1/Editor/Data/MonoBleedingEdge/lib/mono/4.7.1-api/Facades/System.Runtime.CompilerServices.VisualC.dll"
-r:"C:/Users/Xabi/Documents/Unity/2021.1.5f1/Editor/Data/MonoBleedingEdge/lib/mono/4.7.1-api/Facades/System.Runtime.dll"
-r:"C:/Users/Xabi/Documents/Unity/2021.1.5f1/Editor/Data/MonoBleedingEdge/lib/mono/4.7.1-api/Facades/System.Runtime.Extensions.dll"
-r:"C:/Users/Xabi/Documents/Unity/2021.1.5f1/Editor/Data/MonoBleedingEdge/lib/mono/4.7.1-api/Facades/System.Runtime.Handles.dll"
-r:"C:/Users/Xabi/Documents/Unity/2021.1.5f1/Editor/Data/MonoBleedingEdge/lib/mono/4.7.1-api/Facades/System.Runtime.InteropServices.dll"
-r:"C:/Users/Xabi/Documents/Unity/2021.1.5f1/Editor/Data/MonoBleedingEdge/lib/mono/4.7.1-api/Facades/System.Runtime.InteropServices.RuntimeInformation.dll"
-r:"C:/Users/Xabi/Documents/Unity/2021.1.5f1/Editor/Data/MonoBleedingEdge/lib/mono/4.7.1-api/Facades/System.Runtime.InteropServices.WindowsRuntime.dll"
-r:"C:/Users/Xabi/Documents/Unity/2021.1.5f1/Editor/Data/MonoBleedingEdge/lib/mono/4.7.1-api/Facades/System.Runtime.Numerics.dll"
-r:"C:/Users/Xabi/Documents/Unity/2021.1.5f1/Editor/Data/MonoBleedingEdge/lib/mono/4.7.1-api/Facades/System.Runtime.Serialization.Formatters.dll"
-r:"C:/Users/Xabi/Documents/Unity/2021.1.5f1/Editor/Data/MonoBleedingEdge/lib/mono/4.7.1-api/Facades/System.Runtime.Serialization.Json.dll"
-r:"C:/Users/Xabi/Documents/Unity/2021.1.5f1/Editor/Data/MonoBleedingEdge/lib/mono/4.7.1-api/Facades/System.Runtime.Serialization.Primitives.dll"
-r:"C:/Users/Xabi/Documents/Unity/2021.1.5f1/Editor/Data/MonoBleedingEdge/lib/mono/4.7.1-api/Facades/System.Runtime.Serialization.Xml.dll"
-r:"C:/Users/Xabi/Documents/Unity/2021.1.5f1/Editor/Data/MonoBleedingEdge/lib/mono/4.7.1-api/Facades/System.Security.Claims.dll"
-r:"C:/Users/Xabi/Documents/Unity/2021.1.5f1/Editor/Data/MonoBleedingEdge/lib/mono/4.7.1-api/Facades/System.Security.Cryptography.Algorithms.dll"
-r:"C:/Users/Xabi/Documents/Unity/2021.1.5f1/Editor/Data/MonoBleedingEdge/lib/mono/4.7.1-api/Facades/System.Security.Cryptography.Csp.dll"
-r:"C:/Users/Xabi/Documents/Unity/2021.1.5f1/Editor/Data/MonoBleedingEdge/lib/mono/4.7.1-api/Facades/System.Security.Cryptography.Encoding.dll"
-r:"C:/Users/Xabi/Documents/Unity/2021.1.5f1/Editor/Data/MonoBleedingEdge/lib/mono/4.7.1-api/Facades/System.Security.Cryptography.Primitives.dll"
-r:"C:/Users/Xabi/Documents/Unity/2021.1.5f1/Editor/Data/MonoBleedingEdge/lib/mono/4.7.1-api/Facades/System.Security.Cryptography.X509Certificates.dll"
-r:"C:/Users/Xabi/Documents/Unity/2021.1.5f1/Editor/Data/MonoBleedingEdge/lib/mono/4.7.1-api/Facades/System.Security.Principal.dll"
-r:"C:/Users/Xabi/Documents/Unity/2021.1.5f1/Editor/Data/MonoBleedingEdge/lib/mono/4.7.1-api/Facades/System.Security.SecureString.dll"
-r:"C:/Users/Xabi/Documents/Unity/2021.1.5f1/Editor/Data/MonoBleedingEdge/lib/mono/4.7.1-api/Facades/System.ServiceModel.Duplex.dll"
-r:"C:/Users/Xabi/Documents/Unity/2021.1.5f1/Editor/Data/MonoBleedingEdge/lib/mono/4.7.1-api/Facades/System.ServiceModel.Http.dll"
-r:"C:/Users/Xabi/Documents/Unity/2021.1.5f1/Editor/Data/MonoBleedingEdge/lib/mono/4.7.1-api/Facades/System.ServiceModel.NetTcp.dll"
-r:"C:/Users/Xabi/Documents/Unity/2021.1.5f1/Editor/Data/MonoBleedingEdge/lib/mono/4.7.1-api/Facades/System.ServiceModel.Primitives.dll"
-r:"C:/Users/Xabi/Documents/Unity/2021.1.5f1/Editor/Data/MonoBleedingEdge/lib/mono/4.7.1-api/Facades/System.ServiceModel.Security.dll"
-r:"C:/Users/Xabi/Documents/Unity/2021.1.5f1/Editor/Data/MonoBleedingEdge/lib/mono/4.7.1-api/Facades/System.Text.Encoding.dll"
-r:"C:/Users/Xabi/Documents/Unity/2021.1.5f1/Editor/Data/MonoBleedingEdge/lib/mono/4.7.1-api/Facades/System.Text.Encoding.Extensions.dll"
-r:"C:/Users/Xabi/Documents/Unity/2021.1.5f1/Editor/Data/MonoBleedingEdge/lib/mono/4.7.1-api/Facades/System.Text.RegularExpressions.dll"
-r:"C:/Users/Xabi/Documents/Unity/2021.1.5f1/Editor/Data/MonoBleedingEdge/lib/mono/4.7.1-api/Facades/System.Threading.dll"
-r:"C:/Users/Xabi/Documents/Unity/2021.1.5f1/Editor/Data/MonoBleedingEdge/lib/mono/4.7.1-api/Facades/System.Threading.Overlapped.dll"
-r:"C:/Users/Xabi/Documents/Unity/2021.1.5f1/Editor/Data/MonoBleedingEdge/lib/mono/4.7.1-api/Facades/System.Threading.Tasks.dll"
-r:"C:/Users/Xabi/Documents/Unity/2021.1.5f1/Editor/Data/MonoBleedingEdge/lib/mono/4.7.1-api/Facades/System.Threading.Tasks.Parallel.dll"
-r:"C:/Users/Xabi/Documents/Unity/2021.1.5f1/Editor/Data/MonoBleedingEdge/lib/mono/4.7.1-api/Facades/System.Threading.Thread.dll"
-r:"C:/Users/Xabi/Documents/Unity/2021.1.5f1/Editor/Data/MonoBleedingEdge/lib/mono/4.7.1-api/Facades/System.Threading.ThreadPool.dll"
-r:"C:/Users/Xabi/Documents/Unity/2021.1.5f1/Editor/Data/MonoBleedingEdge/lib/mono/4.7.1-api/Facades/System.Threading.Timer.dll"
-r:"C:/Users/Xabi/Documents/Unity/2021.1.5f1/Editor/Data/MonoBleedingEdge/lib/mono/4.7.1-api/Facades/System.ValueTuple.dll"
-r:"C:/Users/Xabi/Documents/Unity/2021.1.5f1/Editor/Data/MonoBleedingEdge/lib/mono/4.7.1-api/Facades/System.Xml.ReaderWriter.dll"
-r:"C:/Users/Xabi/Documents/Unity/2021.1.5f1/Editor/Data/MonoBleedingEdge/lib/mono/4.7.1-api/Facades/System.Xml.XDocument.dll"
-r:"C:/Users/Xabi/Documents/Unity/2021.1.5f1/Editor/Data/MonoBleedingEdge/lib/mono/4.7.1-api/Facades/System.Xml.XmlDocument.dll"
-r:"C:/Users/Xabi/Documents/Unity/2021.1.5f1/Editor/Data/MonoBleedingEdge/lib/mono/4.7.1-api/Facades/System.Xml.XmlSerializer.dll"
-r:"C:/Users/Xabi/Documents/Unity/2021.1.5f1/Editor/Data/MonoBleedingEdge/lib/mono/4.7.1-api/Facades/System.Xml.XPath.dll"
-r:"C:/Users/Xabi/Documents/Unity/2021.1.5f1/Editor/Data/MonoBleedingEdge/lib/mono/4.7.1-api/Facades/System.Xml.XPath.XDocument.dll"
-r:"C:/Users/Xabi/Documents/Unity/2021.1.5f1/Editor/Data/MonoBleedingEdge/lib/mono/4.7.1-api/Microsoft.CSharp.dll"
-r:"C:/Users/Xabi/Documents/Unity/2021.1.5f1/Editor/Data/MonoBleedingEdge/lib/mono/4.7.1-api/mscorlib.dll"
-r:"C:/Users/Xabi/Documents/Unity/2021.1.5f1/Editor/Data/MonoBleedingEdge/lib/mono/4.7.1-api/System.Core.dll"
-r:"C:/Users/Xabi/Documents/Unity/2021.1.5f1/Editor/Data/MonoBleedingEdge/lib/mono/4.7.1-api/System.Data.dll"
-r:"C:/Users/Xabi/Documents/Unity/2021.1.5f1/Editor/Data/MonoBleedingEdge/lib/mono/4.7.1-api/System.dll"
-r:"C:/Users/Xabi/Documents/Unity/2021.1.5f1/Editor/Data/MonoBleedingEdge/lib/mono/4.7.1-api/System.Net.Http.dll"
-r:"C:/Users/Xabi/Documents/Unity/2021.1.5f1/Editor/Data/MonoBleedingEdge/lib/mono/4.7.1-api/System.Numerics.dll"
-r:"C:/Users/Xabi/Documents/Unity/2021.1.5f1/Editor/Data/MonoBleedingEdge/lib/mono/4.7.1-api/System.Numerics.Vectors.dll"
-r:"C:/Users/Xabi/Documents/Unity/2021.1.5f1/Editor/Data/MonoBleedingEdge/lib/mono/4.7.1-api/System.Runtime.Serialization.dll"
-r:"C:/Users/Xabi/Documents/Unity/2021.1.5f1/Editor/Data/MonoBleedingEdge/lib/mono/4.7.1-api/System.Xml.dll"
-r:"C:/Users/Xabi/Documents/Unity/2021.1.5f1/Editor/Data/MonoBleedingEdge/lib/mono/4.7.1-api/System.Xml.Linq.dll"
-r:"C:/Users/Xabi/Documents/Unity/2021.1.5f1/Editor/Data/PlaybackEngines/WindowsStandaloneSupport/UnityEditor.WindowsStandalone.Extensions.dll"
-r:"C:/Users/Xabi/Documents/Unity/VR Test 2/Library/PackageCache/com.unity.ext.nunit@1.0.6/net35/unity-custom/nunit.framework.dll"
-r:"C:/Users/Xabi/Documents/Unity/VR Test 2/Library/PackageCache/com.unity.visualscripting@1.5.2/Editor/VisualScripting.Core/Dependencies/DotNetZip/IonicZip.dll"
-r:"C:/Users/Xabi/Documents/Unity/VR Test 2/Library/PackageCache/com.unity.visualscripting@1.5.2/Editor/VisualScripting.Core/Dependencies/YamlDotNet/YamlDotNet.dll"
-r:"C:/Users/Xabi/Documents/Unity/VR Test 2/Library/PackageCache/com.unity.visualscripting@1.5.2/Runtime/VisualScripting.Core/Dependencies/MiscUtil/MiscUtil.dll"
-r:"C:/Users/Xabi/Documents/Unity/VR Test 2/Library/PackageCache/com.unity.visualscripting@1.5.2/Runtime/VisualScripting.Flow/Dependencies/NCalc/Antlr3.Runtime.dll"
-r:"Library/Bee/artifacts/1900b0aE.dag/Unity.EditorCoroutines.Editor.ref.dll"
-r:"Library/Bee/artifacts/1900b0aE.dag/Unity.InteractiveTutorials.Core.Scripts.ref.dll"
-r:"Library/Bee/artifacts/1900b0aE.dag/Unity.Settings.Editor.ref.dll"
-r:"Library/Bee/artifacts/1900b0aE.dag/UnityEditor.InteractiveTutorialsFramework.ref.dll"
-r:"Library/Bee/artifacts/1900b0aE.dag/UnityEditor.TestRunner.ref.dll"
-r:"Library/Bee/artifacts/1900b0aE.dag/UnityEditor.UI.ref.dll"
-r:"Library/Bee/artifacts/1900b0aE.dag/UnityEngine.TestRunner.ref.dll"
-r:"Library/Bee/artifacts/1900b0aE.dag/UnityEngine.UI.ref.dll"
"Library/PackageCache/com.unity.learn.iet-framework@1.2.3/Editor/AnalyticsHelper.cs"
"Library/PackageCache/com.unity.learn.iet-framework@1.2.3/Editor/AssemblyInfo.cs"
"Library/PackageCache/com.unity.learn.iet-framework@1.2.3/Editor/CollectionWrapper.cs"
"Library/PackageCache/com.unity.learn.iet-framework@1.2.3/Editor/Criteria/ActiveToolCriterion.cs"
"Library/PackageCache/com.unity.learn.iet-framework@1.2.3/Editor/Criteria/ArbitraryCriterion.cs"
"Library/PackageCache/com.unity.learn.iet-framework@1.2.3/Editor/Criteria/BuildStartedCriterion.cs"
"Library/PackageCache/com.unity.learn.iet-framework@1.2.3/Editor/Criteria/ComponentAddedCriterion.cs"
"Library/PackageCache/com.unity.learn.iet-framework@1.2.3/Editor/Criteria/Criterion.cs"
"Library/PackageCache/com.unity.learn.iet-framework@1.2.3/Editor/Criteria/EditorWindowCriterion.cs"
"Library/PackageCache/com.unity.learn.iet-framework@1.2.3/Editor/Criteria/FrameSelectedCriterion.cs"
"Library/PackageCache/com.unity.learn.iet-framework@1.2.3/Editor/Criteria/InstantiatePrefabCriterion.cs"
"Library/PackageCache/com.unity.learn.iet-framework@1.2.3/Editor/Criteria/MaterialPropertyModifiedCriterion.cs"
"Library/PackageCache/com.unity.learn.iet-framework@1.2.3/Editor/Criteria/PlayModeStateCriterion.cs"
"Library/PackageCache/com.unity.learn.iet-framework@1.2.3/Editor/Criteria/PrefabInstanceCountCriterion.cs"
"Library/PackageCache/com.unity.learn.iet-framework@1.2.3/Editor/Criteria/PropertyModificationCriterion.cs"
"Library/PackageCache/com.unity.learn.iet-framework@1.2.3/Editor/Criteria/RequiredSelectionCriterion.cs"
"Library/PackageCache/com.unity.learn.iet-framework@1.2.3/Editor/Criteria/SceneAddedToBuildCriterion.cs"
"Library/PackageCache/com.unity.learn.iet-framework@1.2.3/Editor/Criteria/SceneViewCameraMovedCriterion.cs"
"Library/PackageCache/com.unity.learn.iet-framework@1.2.3/Editor/Criteria/TriggerTaskCriterion.cs"
"Library/PackageCache/com.unity.learn.iet-framework@1.2.3/Editor/Editor Windows/TutorialModalWindow.cs"
"Library/PackageCache/com.unity.learn.iet-framework@1.2.3/Editor/Editor Windows/TutorialParagraphView.cs"
"Library/PackageCache/com.unity.learn.iet-framework@1.2.3/Editor/Editor Windows/TutorialWindow.cs"
"Library/PackageCache/com.unity.learn.iet-framework@1.2.3/Editor/Editor Windows/VideoPlaybackManager.cs"
"Library/PackageCache/com.unity.learn.iet-framework@1.2.3/Editor/Editors/TutorialContainerEditor.cs"
"Library/PackageCache/com.unity.learn.iet-framework@1.2.3/Editor/Editors/TutorialEditor.cs"
"Library/PackageCache/com.unity.learn.iet-framework@1.2.3/Editor/Editors/TutorialPageEditor.cs"
"Library/PackageCache/com.unity.learn.iet-framework@1.2.3/Editor/Editors/TutorialWelcomePageEditor.cs"
"Library/PackageCache/com.unity.learn.iet-framework@1.2.3/Editor/EditorWindowUtils.cs"
"Library/PackageCache/com.unity.learn.iet-framework@1.2.3/Editor/FrameworkSettings.cs"
"Library/PackageCache/com.unity.learn.iet-framework@1.2.3/Editor/FutureObjectReference.cs"
"Library/PackageCache/com.unity.learn.iet-framework@1.2.3/Editor/GenesisHelper.cs"
"Library/PackageCache/com.unity.learn.iet-framework@1.2.3/Editor/Localization/LocalizableString.cs"
"Library/PackageCache/com.unity.learn.iet-framework@1.2.3/Editor/Localization/Localization.cs"
"Library/PackageCache/com.unity.learn.iet-framework@1.2.3/Editor/Localization/POFileUtils.cs"
"Library/PackageCache/com.unity.learn.iet-framework@1.2.3/Editor/Masking/GUIControlSelector.cs"
"Library/PackageCache/com.unity.learn.iet-framework@1.2.3/Editor/Masking/MaskingManager.cs"
"Library/PackageCache/com.unity.learn.iet-framework@1.2.3/Editor/Masking/MaskingSettings.cs"
"Library/PackageCache/com.unity.learn.iet-framework@1.2.3/Editor/Masking/UnmaskedView.cs"
"Library/PackageCache/com.unity.learn.iet-framework@1.2.3/Editor/Models/AutoCompletion.cs"
"Library/PackageCache/com.unity.learn.iet-framework@1.2.3/Editor/Models/InlineIcon.cs"
"Library/PackageCache/com.unity.learn.iet-framework@1.2.3/Editor/Models/SceneViewCameraSettings.cs"
"Library/PackageCache/com.unity.learn.iet-framework@1.2.3/Editor/Models/Tutorial.cs"
"Library/PackageCache/com.unity.learn.iet-framework@1.2.3/Editor/Models/TutorialPage.cs"
"Library/PackageCache/com.unity.learn.iet-framework@1.2.3/Editor/Models/TutorialParagraph.cs"
"Library/PackageCache/com.unity.learn.iet-framework@1.2.3/Editor/Models/TutorialProjectSettings.cs"
"Library/PackageCache/com.unity.learn.iet-framework@1.2.3/Editor/Models/TutorialStyles.cs"
"Library/PackageCache/com.unity.learn.iet-framework@1.2.3/Editor/Models/TutorialWelcomePage.cs"
"Library/PackageCache/com.unity.learn.iet-framework@1.2.3/Editor/Models/TypedCriterion.cs"
"Library/PackageCache/com.unity.learn.iet-framework@1.2.3/Editor/ObjectReference.cs"
"Library/PackageCache/com.unity.learn.iet-framework@1.2.3/Editor/ProjectMode.cs"
"Library/PackageCache/com.unity.learn.iet-framework@1.2.3/Editor/Property Attributes/SerializedTypeFilterAttribute.cs"
"Library/PackageCache/com.unity.learn.iet-framework@1.2.3/Editor/Property Drawers/CollectionWrapperDrawer.cs"
"Library/PackageCache/com.unity.learn.iet-framework@1.2.3/Editor/Property Drawers/ComponentAddedCriterionDrawers.cs"
"Library/PackageCache/com.unity.learn.iet-framework@1.2.3/Editor/Property Drawers/EditorWindowTypeDrawer.cs"
"Library/PackageCache/com.unity.learn.iet-framework@1.2.3/Editor/Property Drawers/FlushChildrenDrawer.cs"
"Library/PackageCache/com.unity.learn.iet-framework@1.2.3/Editor/Property Drawers/GUIControlSelectorDrawer.cs"
"Library/PackageCache/com.unity.learn.iet-framework@1.2.3/Editor/Property Drawers/InlineIconDrawer.cs"
"Library/PackageCache/com.unity.learn.iet-framework@1.2.3/Editor/Property Drawers/InstantiatePrefabCriterionDrawers.cs"
"Library/PackageCache/com.unity.learn.iet-framework@1.2.3/Editor/Property Drawers/LocalizableStringDrawer.cs"
"Library/PackageCache/com.unity.learn.iet-framework@1.2.3/Editor/Property Drawers/MaskingSettingsDrawer.cs"
"Library/PackageCache/com.unity.learn.iet-framework@1.2.3/Editor/Property Drawers/ObjectReferencePropertyDrawer.cs"
"Library/PackageCache/com.unity.learn.iet-framework@1.2.3/Editor/Property Drawers/SceneObjectReferencePropertyDrawer.cs"
"Library/PackageCache/com.unity.learn.iet-framework@1.2.3/Editor/Property Drawers/SceneViewCameraSettingsDrawer.cs"
"Library/PackageCache/com.unity.learn.iet-framework@1.2.3/Editor/Property Drawers/SerializedTypeDrawer.cs"
"Library/PackageCache/com.unity.learn.iet-framework@1.2.3/Editor/Property Drawers/TutorialParagraphCollectionDrawer.cs"
"Library/PackageCache/com.unity.learn.iet-framework@1.2.3/Editor/Property Drawers/TutorialParagraphDrawer.cs"
"Library/PackageCache/com.unity.learn.iet-framework@1.2.3/Editor/Property Drawers/TypedCriterionCollectionDrawer.cs"
"Library/PackageCache/com.unity.learn.iet-framework@1.2.3/Editor/Property Drawers/TypedCriterionDrawer.cs"
"Library/PackageCache/com.unity.learn.iet-framework@1.2.3/Editor/Property Drawers/UnmaskedViewDrawer.cs"
"Library/PackageCache/com.unity.learn.iet-framework@1.2.3/Editor/RichTextParser.cs"
"Library/PackageCache/com.unity.learn.iet-framework@1.2.3/Editor/SceneObjectReference.cs"
"Library/PackageCache/com.unity.learn.iet-framework@1.2.3/Editor/ScriptableObjectUtils.cs"
"Library/PackageCache/com.unity.learn.iet-framework@1.2.3/Editor/SerializedType.cs"
"Library/PackageCache/com.unity.learn.iet-framework@1.2.3/Editor/Settings.cs"
"Library/PackageCache/com.unity.learn.iet-framework@1.2.3/Editor/Shims/PrefabUtilityShim.cs"
"Library/PackageCache/com.unity.learn.iet-framework@1.2.3/Editor/StringExtensions.cs"
"Library/PackageCache/com.unity.learn.iet-framework@1.2.3/Editor/ThirdParty/SerializableCallback/Attributes/TargetConstraintAttribute.cs"
"Library/PackageCache/com.unity.learn.iet-framework@1.2.3/Editor/ThirdParty/SerializableCallback/Editor/SerializableCallbackDrawer.cs"
"Library/PackageCache/com.unity.learn.iet-framework@1.2.3/Editor/ThirdParty/SerializableCallback/InvokableCallback.cs"
"Library/PackageCache/com.unity.learn.iet-framework@1.2.3/Editor/ThirdParty/SerializableCallback/InvokableCallbackBase.cs"
"Library/PackageCache/com.unity.learn.iet-framework@1.2.3/Editor/ThirdParty/SerializableCallback/InvokableEvent.cs"
"Library/PackageCache/com.unity.learn.iet-framework@1.2.3/Editor/ThirdParty/SerializableCallback/InvokableEventBase.cs"
"Library/PackageCache/com.unity.learn.iet-framework@1.2.3/Editor/ThirdParty/SerializableCallback/SerializableCallback.cs"
"Library/PackageCache/com.unity.learn.iet-framework@1.2.3/Editor/ThirdParty/SerializableCallback/SerializableCallbackBase.cs"
"Library/PackageCache/com.unity.learn.iet-framework@1.2.3/Editor/ThirdParty/SerializableCallback/SerializableEvent.cs"
"Library/PackageCache/com.unity.learn.iet-framework@1.2.3/Editor/ThirdParty/SerializableCallback/SerializableEventBase.cs"
"Library/PackageCache/com.unity.learn.iet-framework@1.2.3/Editor/TutorialContainer.cs"
"Library/PackageCache/com.unity.learn.iet-framework@1.2.3/Editor/TutorialEditorUtils.cs"
"Library/PackageCache/com.unity.learn.iet-framework@1.2.3/Editor/TutorialManager.cs"
"Library/PackageCache/com.unity.learn.iet-framework@1.2.3/Editor/TutorialWindowMenuItem.cs"
"Library/PackageCache/com.unity.learn.iet-framework@1.2.3/Editor/UIElementsUtils.cs"
"Library/PackageCache/com.unity.learn.iet-framework@1.2.3/Editor/UserStartupCode.cs"
-langversion:8.0

/deterministic
/optimize+
/debug:portable
/nologo
/RuntimeMetadataVersion:v4.0.30319

/nowarn:0169
/nowarn:0649
/utf8output
/preferreduilang:en-US
-warn:0