Library\Bee\artifacts\movedfrom\UnityEditor.TestRunner.ref.dll_1819107689489022899.movedfrom
Library\Bee\artifacts\movedfrom\UnityEditor.UI.ref.dll_5519394401220875509.movedfrom
Library\Bee\artifacts\movedfrom\UnityEngine.TestRunner.ref.dll_16527383234446630302.movedfrom
Library\Bee\artifacts\movedfrom\UnityEngine.UI.ref.dll_648142665722821984.movedfrom
Library\Bee\artifacts\movedfrom\UnityEditor.Graphs.dll_5424691279874386854.movedfrom
Library\Bee\artifacts\movedfrom\UnityEditor.CoreModule.dll_8266600972360242548.movedfrom
Library\Bee\artifacts\movedfrom\UnityEditor.DeviceSimulatorModule.dll_12244174023389453965.movedfrom
Library\Bee\artifacts\movedfrom\UnityEditor.dll_8663605288281496033.movedfrom
Library\Bee\artifacts\movedfrom\UnityEditor.GraphViewModule.dll_8565551651580273682.movedfrom
Library\Bee\artifacts\movedfrom\UnityEditor.PackageManagerUIModule.dll_3159781672903277008.movedfrom
Library\Bee\artifacts\movedfrom\UnityEditor.QuickSearchModule.dll_6832550596844642804.movedfrom
Library\Bee\artifacts\movedfrom\UnityEditor.SceneTemplateModule.dll_17976679830084560629.movedfrom
Library\Bee\artifacts\movedfrom\UnityEditor.UIBuilderModule.dll_14656860485294251334.movedfrom
Library\Bee\artifacts\movedfrom\UnityEditor.UIElementsModule.dll_3776621725773199408.movedfrom
Library\Bee\artifacts\movedfrom\UnityEditor.UIElementsSamplesModule.dll_17835468209122556989.movedfrom
Library\Bee\artifacts\movedfrom\UnityEditor.UIServiceModule.dll_313477738589826400.movedfrom
Library\Bee\artifacts\movedfrom\UnityEditor.UnityConnectModule.dll_8820748495738224170.movedfrom
Library\Bee\artifacts\movedfrom\UnityEngine.AccessibilityModule.dll_3179377125720641170.movedfrom
Library\Bee\artifacts\movedfrom\UnityEngine.AIModule.dll_3376778383286730056.movedfrom
Library\Bee\artifacts\movedfrom\UnityEngine.AndroidJNIModule.dll_12876400767037826822.movedfrom
Library\Bee\artifacts\movedfrom\UnityEngine.AnimationModule.dll_5000244636490447032.movedfrom
Library\Bee\artifacts\movedfrom\UnityEngine.ARModule.dll_16739738045886192657.movedfrom
Library\Bee\artifacts\movedfrom\UnityEngine.AssetBundleModule.dll_11726049079278802662.movedfrom
Library\Bee\artifacts\movedfrom\UnityEngine.AudioModule.dll_925194601717377962.movedfrom
Library\Bee\artifacts\movedfrom\UnityEngine.ClothModule.dll_8340473620653804174.movedfrom
Library\Bee\artifacts\movedfrom\UnityEngine.ClusterInputModule.dll_18016101770955165936.movedfrom
Library\Bee\artifacts\movedfrom\UnityEngine.ClusterRendererModule.dll_12653089482034949137.movedfrom
Library\Bee\artifacts\movedfrom\UnityEngine.CoreModule.dll_10797856314902167711.movedfrom
Library\Bee\artifacts\movedfrom\UnityEngine.CrashReportingModule.dll_13058421563857005975.movedfrom
Library\Bee\artifacts\movedfrom\UnityEngine.DirectorModule.dll_4892923641593577084.movedfrom
Library\Bee\artifacts\movedfrom\UnityEngine.dll_12312724781469951686.movedfrom
Library\Bee\artifacts\movedfrom\UnityEngine.DSPGraphModule.dll_5276118190415187869.movedfrom
Library\Bee\artifacts\movedfrom\UnityEngine.GameCenterModule.dll_15924574768693270519.movedfrom
Library\Bee\artifacts\movedfrom\UnityEngine.GIModule.dll_14346501498449749346.movedfrom
Library\Bee\artifacts\movedfrom\UnityEngine.GridModule.dll_8307677905367357078.movedfrom
Library\Bee\artifacts\movedfrom\UnityEngine.HotReloadModule.dll_14316149398067991610.movedfrom
Library\Bee\artifacts\movedfrom\UnityEngine.ImageConversionModule.dll_1984622374310470661.movedfrom
Library\Bee\artifacts\movedfrom\UnityEngine.IMGUIModule.dll_4987335254389473163.movedfrom
Library\Bee\artifacts\movedfrom\UnityEngine.InputLegacyModule.dll_3747107732674006231.movedfrom
Library\Bee\artifacts\movedfrom\UnityEngine.InputModule.dll_8308221326572736590.movedfrom
Library\Bee\artifacts\movedfrom\UnityEngine.JSONSerializeModule.dll_10103530968604225308.movedfrom
Library\Bee\artifacts\movedfrom\UnityEngine.LocalizationModule.dll_4058543081904767977.movedfrom
Library\Bee\artifacts\movedfrom\UnityEngine.ParticleSystemModule.dll_597604937489250597.movedfrom
Library\Bee\artifacts\movedfrom\UnityEngine.PerformanceReportingModule.dll_6212069646626305118.movedfrom
Library\Bee\artifacts\movedfrom\UnityEngine.Physics2DModule.dll_10523328971302350925.movedfrom
Library\Bee\artifacts\movedfrom\UnityEngine.PhysicsModule.dll_12698792988400111547.movedfrom
Library\Bee\artifacts\movedfrom\UnityEngine.ProfilerModule.dll_8515569498523518345.movedfrom
Library\Bee\artifacts\movedfrom\UnityEngine.RuntimeInitializeOnLoadManagerInitializerModule.dll_4029872628748729110.movedfrom
Library\Bee\artifacts\movedfrom\UnityEngine.ScreenCaptureModule.dll_11970182326257474430.movedfrom
Library\Bee\artifacts\movedfrom\UnityEngine.SharedInternalsModule.dll_11501078948469497685.movedfrom
Library\Bee\artifacts\movedfrom\UnityEngine.SpriteMaskModule.dll_14279760968158014833.movedfrom
Library\Bee\artifacts\movedfrom\UnityEngine.SpriteShapeModule.dll_13554841870585548528.movedfrom
Library\Bee\artifacts\movedfrom\UnityEngine.StreamingModule.dll_18012530789058113526.movedfrom
Library\Bee\artifacts\movedfrom\UnityEngine.SubstanceModule.dll_15466611929739128324.movedfrom
Library\Bee\artifacts\movedfrom\UnityEngine.SubsystemsModule.dll_3519929603698447748.movedfrom
Library\Bee\artifacts\movedfrom\UnityEngine.TerrainModule.dll_14592129397718620329.movedfrom
Library\Bee\artifacts\movedfrom\UnityEngine.TerrainPhysicsModule.dll_632130509263336370.movedfrom
Library\Bee\artifacts\movedfrom\UnityEngine.TextCoreModule.dll_15898265285172014732.movedfrom
Library\Bee\artifacts\movedfrom\UnityEngine.TextRenderingModule.dll_14942401995694398323.movedfrom
Library\Bee\artifacts\movedfrom\UnityEngine.TilemapModule.dll_7601530680279464370.movedfrom
Library\Bee\artifacts\movedfrom\UnityEngine.TLSModule.dll_12081014721197816271.movedfrom
Library\Bee\artifacts\movedfrom\UnityEngine.UIElementsModule.dll_3825718527763943803.movedfrom
Library\Bee\artifacts\movedfrom\UnityEngine.UIElementsNativeModule.dll_8526300657838778866.movedfrom
Library\Bee\artifacts\movedfrom\UnityEngine.UIModule.dll_3049033953077691124.movedfrom
Library\Bee\artifacts\movedfrom\UnityEngine.UmbraModule.dll_9776082990854559517.movedfrom
Library\Bee\artifacts\movedfrom\UnityEngine.UNETModule.dll_2918324884209841688.movedfrom
Library\Bee\artifacts\movedfrom\UnityEngine.UnityAnalyticsModule.dll_2876268885441006369.movedfrom
Library\Bee\artifacts\movedfrom\UnityEngine.UnityConnectModule.dll_7478539531672731349.movedfrom
Library\Bee\artifacts\movedfrom\UnityEngine.UnityCurlModule.dll_8683240465478494885.movedfrom
Library\Bee\artifacts\movedfrom\UnityEngine.UnityTestProtocolModule.dll_12918300418483753363.movedfrom
Library\Bee\artifacts\movedfrom\UnityEngine.UnityWebRequestAssetBundleModule.dll_1526274361211641522.movedfrom
Library\Bee\artifacts\movedfrom\UnityEngine.UnityWebRequestAudioModule.dll_14857947246473805558.movedfrom
Library\Bee\artifacts\movedfrom\UnityEngine.UnityWebRequestModule.dll_3254364421161877124.movedfrom
Library\Bee\artifacts\movedfrom\UnityEngine.UnityWebRequestTextureModule.dll_13441434461921750923.movedfrom
Library\Bee\artifacts\movedfrom\UnityEngine.UnityWebRequestWWWModule.dll_3853744851699607751.movedfrom
Library\Bee\artifacts\movedfrom\UnityEngine.VehiclesModule.dll_13522657803494592023.movedfrom
Library\Bee\artifacts\movedfrom\UnityEngine.VFXModule.dll_2920297730984125244.movedfrom
Library\Bee\artifacts\movedfrom\UnityEngine.VideoModule.dll_3594004449976862543.movedfrom
Library\Bee\artifacts\movedfrom\UnityEngine.VirtualTexturingModule.dll_11159978928118393469.movedfrom
Library\Bee\artifacts\movedfrom\UnityEngine.VRModule.dll_9016908764682881132.movedfrom
Library\Bee\artifacts\movedfrom\UnityEngine.WindModule.dll_876104353132986120.movedfrom
Library\Bee\artifacts\movedfrom\UnityEngine.XRModule.dll_12673483136403887562.movedfrom
Library\Bee\artifacts\movedfrom\UnityEditor.WindowsStandalone.Extensions.dll_5629914561954858860.movedfrom